\relax 
\providecommand\hyper@newdestlabel[2]{}
\providecommand\babel@aux[2]{}
\@nameuse{bbl@beforestart}
\providecommand\HyperFirstAtBeginDocument{\AtBeginDocument}
\HyperFirstAtBeginDocument{\ifx\hyper@anchor\@undefined
\global\let\oldcontentsline\contentsline
\gdef\contentsline#1#2#3#4{\oldcontentsline{#1}{#2}{#3}}
\global\let\oldnewlabel\newlabel
\gdef\newlabel#1#2{\newlabelxx{#1}#2}
\gdef\newlabelxx#1#2#3#4#5#6{\oldnewlabel{#1}{{#2}{#3}}}
\AtEndDocument{\ifx\hyper@anchor\@undefined
\let\contentsline\oldcontentsline
\let\newlabel\oldnewlabel
\fi}
\fi}
\global\let\hyper@last\relax 
\gdef\HyperFirstAtBeginDocument#1{#1}
\providecommand*\HyPL@Entry[1]{}
\HyPL@Entry{0<</S/D>>}
\babel@aux{french}{}
\HyPL@Entry{2<</S/r>>}
\HyPL@Entry{4<</S/D>>}
\newlabel{index::doc}{{}{1}{}{section*.2}{}}
\@writefile{toc}{\contentsline {chapter}{\numberline {1}Modules}{1}{chapter.1}\protected@file@percent }
\@writefile{lof}{\addvspace {10\p@ }}
\@writefile{lot}{\addvspace {10\p@ }}
\newlabel{index:module-8_Documentation.mon_module}{{1}{1}{Modules}{chapter.1}{}}
\newlabel{index:modules}{{1}{1}{Modules}{chapter.1}{}}
\newlabel{index:module-mon_module}{{1}{1}{Modules}{section*.3}{}}
\newlabel{index:Documentation.mon_module.ClasseExemple}{{1}{1}{Modules}{section*.4}{}}
\newlabel{index:Documentation.mon_module.ClasseExemple.mafonction}{{1}{2}{Modules}{section*.5}{}}
\@writefile{toc}{\contentsline {chapter}{Index des modules Python}{5}{section*.6}\protected@file@percent }
\@writefile{toc}{\contentsline {chapter}{Index}{7}{section*.7}\protected@file@percent }
\gdef \@abspage@last{11}
