\babel@toc {french}{}\relax 
\contentsline {chapter}{\numberline {1}Accueil des stagiaires}{3}{chapter.1}%
\contentsline {chapter}{\numberline {2}Présentation et installation des outils du langage}{5}{chapter.2}%
\contentsline {section}{\numberline {2.1}Conception et modélisations}{6}{section.2.1}%
\contentsline {subsection}{\numberline {2.1.1}Réalités des développeurs}{6}{subsection.2.1.1}%
\contentsline {subsection}{\numberline {2.1.2}Bonnes pratiques}{6}{subsection.2.1.2}%
\contentsline {section}{\numberline {2.2}Les environnements systèmes}{7}{section.2.2}%
\contentsline {subsection}{\numberline {2.2.1}EnvironnementUNIX/Linux sous Windows}{7}{subsection.2.2.1}%
\contentsline {subsubsection}{SSH et Telnet}{7}{subsubsection*.3}%
\contentsline {subsubsection}{Serveur X}{7}{subsubsection*.4}%
\contentsline {subsubsection}{RDP}{7}{subsubsection*.5}%
\contentsline {subsubsection}{Nomachine/freenx ou X2GO (optimisation X)}{7}{subsubsection*.6}%
\contentsline {subsubsection}{VNC}{7}{subsubsection*.7}%
\contentsline {subsection}{\numberline {2.2.2}Linux sous Windows}{8}{subsection.2.2.2}%
\contentsline {subsubsection}{Activer le mode développeur de Windows 10}{8}{subsubsection*.8}%
\contentsline {subsubsection}{Installer le sous\sphinxhyphen {}système Windows pour Linux}{9}{subsubsection*.9}%
\contentsline {subsubsection}{Choisir une distribution Linux pour Windows}{10}{subsubsection*.10}%
\contentsline {subsubsection}{Installer Linux}{11}{subsubsection*.11}%
\contentsline {subsection}{\numberline {2.2.3}Environnements Windows sous MAC OS}{13}{subsection.2.2.3}%
\contentsline {subsubsection}{PowerShell}{13}{subsubsection*.12}%
\contentsline {subsection}{\numberline {2.2.4}Environnements Windows sous Linux}{14}{subsection.2.2.4}%
\contentsline {subsubsection}{PowerShell}{14}{subsubsection*.13}%
\contentsline {paragraph}{La méthode recommandée est la suivante pour une distribution Debian}{14}{paragraph*.14}%
\contentsline {subsubsection}{Serveurs RDP (TSE)}{15}{subsubsection*.15}%
\contentsline {section}{\numberline {2.3}L’édition de code Python}{16}{section.2.3}%
\contentsline {subsection}{\numberline {2.3.1}Installer un éditeur de code}{16}{subsection.2.3.1}%
\contentsline {section}{\numberline {2.4}Interpréteurs}{18}{section.2.4}%
\contentsline {subsection}{\numberline {2.4.1}Installer Python}{18}{subsection.2.4.1}%
\contentsline {subsection}{\numberline {2.4.2}Mode Interactif}{18}{subsection.2.4.2}%
\contentsline {subsection}{\numberline {2.4.3}Les mots clé}{21}{subsection.2.4.3}%
\contentsline {subsection}{\numberline {2.4.4}Les fonctions de base de Python}{22}{subsection.2.4.4}%
\contentsline {subsection}{\numberline {2.4.5}Mode interprété}{23}{subsection.2.4.5}%
\contentsline {subsubsection}{Conversion Python 2 vers Python 3}{23}{subsubsection*.16}%
\contentsline {subsection}{\numberline {2.4.6}Mode Compilé}{25}{subsection.2.4.6}%
\contentsline {section}{\numberline {2.5}Révision de code}{26}{section.2.5}%
\contentsline {subsection}{\numberline {2.5.1}Installer un logiciel de révision de code sur le poste de développement}{27}{subsection.2.5.1}%
\contentsline {subsubsection}{Installer git}{27}{subsubsection*.17}%
\contentsline {subsubsection}{Configurer git}{27}{subsubsection*.18}%
\contentsline {section}{\numberline {2.6}Environnement virtuel PYTHON 3}{29}{section.2.6}%
\contentsline {subsection}{\numberline {2.6.1}venv}{29}{subsection.2.6.1}%
\contentsline {subsection}{\numberline {2.6.2}pipenv}{30}{subsection.2.6.2}%
\contentsline {section}{\numberline {2.7}Documentation}{31}{section.2.7}%
\contentsline {subsection}{\numberline {2.7.1}Sauvegarder la structure de documentation}{33}{subsection.2.7.1}%
\contentsline {section}{\numberline {2.8}Débogages}{35}{section.2.8}%
\contentsline {subsection}{\numberline {2.8.1}Le débogueur Python pdb}{35}{subsection.2.8.1}%
\contentsline {subsubsection}{Installation de pdb}{35}{subsubsection*.19}%
\contentsline {subsubsection}{Déboguer avec pdb}{35}{subsubsection*.20}%
\contentsline {paragraph}{Postmortem}{36}{paragraph*.21}%
\contentsline {paragraph}{Lancez le module avec le débogueur}{36}{paragraph*.22}%
\contentsline {paragraph}{Exécution pas à pas du débogueur}{36}{paragraph*.23}%
\contentsline {paragraph}{Appeler le débogueur à l’intérieur du module}{37}{paragraph*.24}%
\contentsline {paragraph}{Les commandes du débogueur}{37}{paragraph*.25}%
\contentsline {subsection}{\numberline {2.8.2}La Gestion des Warnings d’exécution}{39}{subsection.2.8.2}%
\contentsline {section}{\numberline {2.9}Tests Unitaires}{40}{section.2.9}%
\contentsline {subsection}{\numberline {2.9.1}Sauvegarder la structure de tests}{40}{subsection.2.9.1}%
\contentsline {section}{\numberline {2.10}L’industrialisation du code DEVOPS}{41}{section.2.10}%
\contentsline {subsection}{\numberline {2.10.1}Configurer le DNS local}{42}{subsection.2.10.1}%
\contentsline {subsubsection}{Installer une interface réseau virtuelle}{42}{subsubsection*.26}%
\contentsline {subsubsection}{Configuration du client dhcp adaptée au DNS local}{42}{subsubsection*.27}%
\contentsline {subsubsection}{Définir le domaine local de la machine Ubuntu}{43}{subsubsection*.28}%
\contentsline {subsubsection}{Installer les applications de base}{43}{subsubsection*.29}%
\contentsline {subsubsection}{Configuration du DNS local}{43}{subsubsection*.30}%
\contentsline {subsubsection}{Tests du serveur DNS}{44}{subsubsection*.31}%
\contentsline {paragraph}{Vérifications du serveur}{44}{paragraph*.32}%
\contentsline {paragraph}{Vérifier la résolution DNS}{48}{paragraph*.33}%
\contentsline {paragraph}{Vérifier la résolution externe}{49}{paragraph*.34}%
\contentsline {paragraph}{Vérifier la résolution inverse}{49}{paragraph*.35}%
\contentsline {subsubsection}{Paramétrer définitivement votre DNS pour gitlab}{49}{subsubsection*.36}%
\contentsline {subsection}{\numberline {2.10.2}Installer Docker}{52}{subsection.2.10.2}%
\contentsline {subsection}{\numberline {2.10.3}Tester Docker}{55}{subsection.2.10.3}%
\contentsline {subsection}{\numberline {2.10.4}Installer GitLab}{56}{subsection.2.10.4}%
\contentsline {subsubsection}{Téléchargez le paquet d’installation GitLab pour Ubuntu et l’installer}{56}{subsubsection*.37}%
\contentsline {subsubsection}{Paramétrer GitLab}{56}{subsubsection*.38}%
\contentsline {subsection}{\numberline {2.10.5}Configurer et tester GitLab}{57}{subsection.2.10.5}%
\contentsline {subsection}{\numberline {2.10.6}Autorisations pour Docker et le Runner}{65}{subsection.2.10.6}%
\contentsline {subsection}{\numberline {2.10.7}Configurer et tester le Runner}{66}{subsection.2.10.7}%
\contentsline {subsubsection}{Tester le fonctionnement du runner}{71}{subsubsection*.39}%
\contentsline {subsection}{\numberline {2.10.8}Tester les Pages GitLab}{76}{subsection.2.10.8}%
\contentsline {subsubsection}{Créer un projet de rendu de pages HTML}{76}{subsubsection*.40}%
\contentsline {subsubsection}{Créer le «runner» pour ce projet}{79}{subsubsection*.41}%
\contentsline {paragraph}{Déployer et tester le HTML dans une Pages GitLab}{82}{paragraph*.42}%
\contentsline {chapter}{\numberline {3}Les principaux éléments de syntaxe}{87}{chapter.3}%
\contentsline {section}{\numberline {3.1}Syntaxe et grammaire Python}{87}{section.3.1}%
\contentsline {subsection}{\numberline {3.1.1}L’identation}{88}{subsection.3.1.1}%
\contentsline {subsection}{\numberline {3.1.2}Les commentaires}{90}{subsection.3.1.2}%
\contentsline {subsection}{\numberline {3.1.3}Chaînes de caractères}{91}{subsection.3.1.3}%
\contentsline {subsection}{\numberline {3.1.4}Majuscules et Minuscules (Variables, instructions, fonctions, objets)}{92}{subsection.3.1.4}%
\contentsline {subsection}{\numberline {3.1.5}Gestion des espaces}{93}{subsection.3.1.5}%
\contentsline {subsection}{\numberline {3.1.6}Les règles de base d’écriture des fonctions/procédures}{94}{subsection.3.1.6}%
\contentsline {section}{\numberline {3.2}Utilisation de Python comme calculatrice}{96}{section.3.2}%
\contentsline {section}{\numberline {3.3}Les variables}{98}{section.3.3}%
\contentsline {subsection}{\numberline {3.3.1}L’affectation dans le code}{98}{subsection.3.3.1}%
\contentsline {subsection}{\numberline {3.3.2}L’affectation au clavier}{99}{subsection.3.3.2}%
\contentsline {subsubsection}{La fonction input}{99}{subsubsection*.43}%
\contentsline {subsection}{\numberline {3.3.3}L’affectation par variables passées à un script}{100}{subsection.3.3.3}%
\contentsline {subsubsection}{Passage d’arguments en ligne de commande}{100}{subsubsection*.44}%
\contentsline {section}{\numberline {3.4}L’affichage d’informations}{101}{section.3.4}%
\contentsline {subsection}{\numberline {3.4.1}À l’écran du terminal}{101}{subsection.3.4.1}%
\contentsline {subsubsection}{Formatage de données}{101}{subsubsection*.45}%
\contentsline {paragraph}{Les expressions formatées f' \{\} '}{101}{paragraph*.46}%
\contentsline {paragraph}{La méthode str.format()}{101}{paragraph*.47}%
\contentsline {paragraph}{Concaténations de tranches de chaînes}{102}{paragraph*.48}%
\contentsline {subsubsection}{La sortie en chaînes de caractères}{102}{subsubsection*.49}%
\contentsline {subsubsection}{Les \sphinxstyleemphasis {chaînes} de caractères formatées (f\sphinxhyphen {}strings)}{103}{subsubsection*.50}%
\contentsline {subsubsection}{La méthode de chaîne de caractères format()}{104}{subsubsection*.51}%
\contentsline {subsection}{\numberline {3.4.2}Logs Système}{106}{subsection.3.4.2}%
\contentsline {subsubsection}{Utiliser logging}{106}{subsubsection*.52}%
\contentsline {subsubsection}{Un exemple simple}{107}{subsubsection*.53}%
\contentsline {subsubsection}{Enregistrer les évènements dans un fichier}{108}{subsubsection*.54}%
\contentsline {subsubsection}{Régler le niveau de journalisation d’un script}{108}{subsubsection*.55}%
\contentsline {subsubsection}{Modifier le format du message affiché}{110}{subsubsection*.56}%
\contentsline {subsection}{\numberline {3.4.3}GUI}{112}{subsection.3.4.3}%
\contentsline {section}{\numberline {3.5}Les types de variables}{113}{section.3.5}%
\contentsline {subsection}{\numberline {3.5.1}Logique}{113}{subsection.3.5.1}%
\contentsline {subsubsection}{Booléen}{113}{subsubsection*.57}%
\contentsline {subsection}{\numberline {3.5.2}Chaînes de caractères}{114}{subsection.3.5.2}%
\contentsline {subsubsection}{Chaîne de caractère ASCII}{114}{subsubsection*.58}%
\contentsline {subsubsection}{Chaîne de caractère Unicode}{114}{subsubsection*.59}%
\contentsline {subsubsection}{Manipulation des chaînes de caractères}{114}{subsubsection*.60}%
\contentsline {subsection}{\numberline {3.5.3}Nombres}{120}{subsection.3.5.3}%
\contentsline {subsubsection}{Nombre entier optimisé (int)}{120}{subsubsection*.61}%
\contentsline {subsubsection}{Nombre entier de taille arbitraire (long int)}{120}{subsubsection*.62}%
\contentsline {subsubsection}{Nombre à virgule flottante}{120}{subsubsection*.63}%
\contentsline {subsubsection}{Nombre complexe}{120}{subsubsection*.64}%
\contentsline {subsection}{\numberline {3.5.4}Données multiples}{121}{subsection.3.5.4}%
\contentsline {subsubsection}{Liste de longueur fixe}{121}{subsubsection*.65}%
\contentsline {subsubsection}{Les ensembles}{122}{subsubsection*.66}%
\contentsline {subsubsection}{Liste de longueur variable}{123}{subsubsection*.67}%
\contentsline {paragraph}{Premiers pas vers la programmation}{125}{paragraph*.68}%
\contentsline {subsubsection}{Dictionnaire}{128}{subsubsection*.69}%
\contentsline {subsection}{\numberline {3.5.5}Autres}{130}{subsection.3.5.5}%
\contentsline {subsubsection}{Fichier}{130}{subsubsection*.70}%
\contentsline {subsubsection}{Absence de type}{130}{subsubsection*.71}%
\contentsline {subsubsection}{Absence d’implémentation}{130}{subsubsection*.72}%
\contentsline {subsubsection}{fonction}{130}{subsubsection*.73}%
\contentsline {subsubsection}{module}{130}{subsubsection*.74}%
\contentsline {section}{\numberline {3.6}Les fonctions intégrées}{131}{section.3.6}%
\contentsline {subsection}{\numberline {3.6.1}Détermination du type d’une variable}{131}{subsection.3.6.1}%
\contentsline {subsection}{\numberline {3.6.2}Conversion de types}{131}{subsection.3.6.2}%
\contentsline {subsection}{\numberline {3.6.3}Voir les propriétés des fonctions}{132}{subsection.3.6.3}%
\contentsline {subsubsection}{Fonction d’aide sur les fonctions Python}{132}{subsubsection*.75}%
\contentsline {subsubsection}{Fonction de visualisation des propriétés et méthodes des fonctions Python}{132}{subsubsection*.76}%
\contentsline {subsubsection}{L’identification des objets}{133}{subsubsection*.77}%
\contentsline {subsection}{\numberline {3.6.4}Zoom sur fonctions et propriétés}{134}{subsection.3.6.4}%
\contentsline {subsubsection}{Range}{134}{subsubsection*.78}%
\contentsline {subsubsection}{Chaînes de caractères}{136}{subsubsection*.79}%
\contentsline {paragraph}{split() : sépare une chaîne en liste}{136}{paragraph*.80}%
\contentsline {paragraph}{join() : Concatène une liste de caractères}{136}{paragraph*.81}%
\contentsline {section}{\numberline {3.7}Les modules}{138}{section.3.7}%
\contentsline {subsection}{\numberline {3.7.1}\_\_name\_\_ et \_\_main\_\_}{138}{subsection.3.7.1}%
\contentsline {subsection}{\numberline {3.7.2}Gestion des imports}{139}{subsection.3.7.2}%
\contentsline {section}{\numberline {3.8}Les bibliothèques de fonctions ou d’objets}{140}{section.3.8}%
\contentsline {subsection}{\numberline {3.8.1}Les modules PYTHON}{140}{subsection.3.8.1}%
\contentsline {subsection}{\numberline {3.8.2}Le dépôt de modules Python}{141}{subsection.3.8.2}%
\contentsline {subsubsection}{Pip}{141}{subsubsection*.82}%
\contentsline {paragraph}{PIP c’est quoi ?}{141}{paragraph*.83}%
\contentsline {subsection}{\numberline {3.8.3}Les modules de gestion des paramètres de la ligne de commande}{143}{subsection.3.8.3}%
\contentsline {subsubsection}{Modules dépréciés}{143}{subsubsection*.84}%
\contentsline {subsubsection}{Argparse}{144}{subsubsection*.85}%
\contentsline {paragraph}{Utilisation du module}{144}{paragraph*.86}%
\contentsline {paragraph}{Ajout d’options}{145}{paragraph*.87}%
\contentsline {paragraph}{Exemples}{145}{paragraph*.88}%
\contentsline {subsection}{\numberline {3.8.4}Gestion des dates et du temps}{164}{subsection.3.8.4}%
\contentsline {subsubsection}{Date et heure}{164}{subsubsection*.89}%
\contentsline {subsubsection}{Durée}{165}{subsubsection*.90}%
\contentsline {subsubsection}{Calendrier}{166}{subsubsection*.91}%
\contentsline {subsection}{\numberline {3.8.5}Module Windows}{168}{subsection.3.8.5}%
\contentsline {section}{\numberline {3.9}L’organisation du code}{172}{section.3.9}%
\contentsline {subsection}{\numberline {3.9.1}Structures de contrôles}{172}{subsection.3.9.1}%
\contentsline {subsubsection}{Structures alternatives}{172}{subsubsection*.92}%
\contentsline {paragraph}{If, else, elif}{172}{paragraph*.93}%
\contentsline {subsubsection}{Structures itératives}{172}{subsubsection*.94}%
\contentsline {paragraph}{For in}{172}{paragraph*.95}%
\contentsline {paragraph}{While}{174}{paragraph*.96}%
\contentsline {subparagraph}{break, continue}{174}{subparagraph*.97}%
\contentsline {subparagraph}{pass}{175}{subparagraph*.98}%
\contentsline {paragraph}{alternative do while}{176}{paragraph*.99}%
\contentsline {paragraph}{Techniques de boucles des dictionnaires}{176}{paragraph*.100}%
\contentsline {chapter}{\numberline {4}La génération de la documentation du programme}{179}{chapter.4}%
\contentsline {section}{\numberline {4.1}Configurer Sphinx pour Python}{180}{section.4.1}%
\contentsline {subsection}{\numberline {4.1.1}Configurations de base de sphinx}{180}{subsection.4.1.1}%
\contentsline {subsubsection}{Renseigner la racine des fichiers de CODE}{180}{subsubsection*.101}%
\contentsline {subsubsection}{Informations sur le projet de documentation}{180}{subsubsection*.102}%
\contentsline {subsubsection}{Paramètres de documentation}{181}{subsubsection*.103}%
\contentsline {subsection}{\numberline {4.1.2}L’apparence des documents}{182}{subsection.4.1.2}%
\contentsline {subsubsection}{Changer le thème HTML de votre documentation}{183}{subsubsection*.104}%
\contentsline {paragraph}{Le thème sphinx book}{183}{paragraph*.105}%
\contentsline {subsection}{\numberline {4.1.3}Configuration des documents générés en sortie}{185}{subsection.4.1.3}%
\contentsline {subsubsection}{Le HTML}{185}{subsubsection*.106}%
\contentsline {subsubsection}{LaTeX}{186}{subsubsection*.107}%
\contentsline {subsubsection}{Pages de manuel}{187}{subsubsection*.108}%
\contentsline {subsubsection}{Texinfo}{187}{subsubsection*.109}%
\contentsline {subsubsection}{Epub}{188}{subsubsection*.110}%
\contentsline {subsection}{\numberline {4.1.4}Inclure les extensions de documentation utiles pour Python}{188}{subsection.4.1.4}%
\contentsline {subsubsection}{Ajout des extensions utiles pour Python et Sphinx}{189}{subsubsection*.111}%
\contentsline {subsubsection}{Configuration des extensions}{190}{subsubsection*.112}%
\contentsline {paragraph}{Intersphinx}{190}{paragraph*.113}%
\contentsline {paragraph}{Extlinks}{190}{paragraph*.114}%
\contentsline {paragraph}{Autodoc}{190}{paragraph*.115}%
\contentsline {paragraph}{Inline Syntax highlight}{191}{paragraph*.116}%
\contentsline {paragraph}{Graphviz}{191}{paragraph*.117}%
\contentsline {paragraph}{Copybutton}{192}{paragraph*.118}%
\contentsline {paragraph}{Tabs}{192}{paragraph*.119}%
\contentsline {paragraph}{Ifconfig}{193}{paragraph*.120}%
\contentsline {subsection}{\numberline {4.1.5}Générer la documentation}{193}{subsection.4.1.5}%
\contentsline {subsubsection}{Générer les formats odt ou docx}{194}{subsubsection*.121}%
\contentsline {subsubsection}{Générer l’internationalisation}{194}{subsubsection*.122}%
\contentsline {section}{\numberline {4.2}Rédiger la documentation}{195}{section.4.2}%
\contentsline {subsection}{\numberline {4.2.1}Parties, chapitres, sections, paragraphes}{196}{subsection.4.2.1}%
\contentsline {subsection}{\numberline {4.2.2}Mettre en forme du texte}{198}{subsection.4.2.2}%
\contentsline {subsection}{\numberline {4.2.3}Insertion de texte d’échappement}{200}{subsection.4.2.3}%
\contentsline {subsection}{\numberline {4.2.4}Les listes}{201}{subsection.4.2.4}%
\contentsline {subsection}{\numberline {4.2.5}Les tableaux}{202}{subsection.4.2.5}%
\contentsline {subsection}{\numberline {4.2.6}Insertion de blocs, code, image, graphviz, liens, mathématiques, notes, citations}{204}{subsection.4.2.6}%
\contentsline {subsection}{\numberline {4.2.7}Boites et conditions d’affichages}{206}{subsection.4.2.7}%
\contentsline {subsection}{\numberline {4.2.8}Documenter le code Python}{210}{subsection.4.2.8}%
\contentsline {subsubsection}{Balise de méta\sphinxhyphen {}information}{212}{subsubsection*.123}%
\contentsline {paragraph}{sectionauthor}{212}{paragraph*.124}%
\contentsline {subsubsection}{Balisages spécifiques au module}{212}{subsubsection*.125}%
\contentsline {paragraph}{module}{213}{paragraph*.126}%
\contentsline {paragraph}{moduleauthor}{213}{paragraph*.127}%
\contentsline {subsubsection}{Pour le code, nos fonctions et nos classes}{214}{subsubsection*.128}%
\contentsline {section}{\numberline {4.3}Mise en œuvre de la documentation avec Gitlab}{219}{section.4.3}%
\contentsline {subsection}{\numberline {4.3.1}Définition de la structure du document}{219}{subsection.4.3.1}%
\contentsline {subsection}{\numberline {4.3.2}Générer la documentation avec un script}{220}{subsection.4.3.2}%
\contentsline {subsection}{\numberline {4.3.3}Générer la documentation avec Gitlab}{222}{subsection.4.3.3}%
\contentsline {subsubsection}{Génération de la documentation dans Gitlab}{222}{subsubsection*.129}%
\contentsline {chapter}{\numberline {5}La qualité du code}{227}{chapter.5}%
\contentsline {section}{\numberline {5.1}Test de l’environnement Python dans Gitlab}{229}{section.5.1}%
\contentsline {section}{\numberline {5.2}Test de l’obsolescence du code Python dans Gitlab}{230}{section.5.2}%
\contentsline {section}{\numberline {5.3}Test de qualité du code dans Gitlab}{236}{section.5.3}%
\contentsline {chapter}{\numberline {6}Tests unitaire Python}{245}{chapter.6}%
\contentsline {section}{\numberline {6.1}Le module Unittest}{245}{section.6.1}%
\contentsline {subsection}{\numberline {6.1.1}Les valeurs de retour des tests}{247}{subsection.6.1.1}%
\contentsline {subsubsection}{Tests réussits}{247}{subsubsection*.130}%
\contentsline {subsubsection}{Modification engendrant un échec}{248}{subsubsection*.131}%
\contentsline {subsubsection}{Modification engendrant une erreur}{248}{subsubsection*.132}%
\contentsline {subsection}{\numberline {6.1.2}Exécution de l’ensemble de tests}{249}{subsection.6.1.2}%
\contentsline {subsection}{\numberline {6.1.3}Présentation et architecture des tests}{250}{subsection.6.1.3}%
\contentsline {subsection}{\numberline {6.1.4}Les différents tests de Unittest}{252}{subsection.6.1.4}%
\contentsline {section}{\numberline {6.2}Mise en œuvre avec Gitlab}{253}{section.6.2}%
\contentsline {chapter}{\numberline {7}Les procédures et fonctions}{259}{chapter.7}%
\contentsline {section}{\numberline {7.1}Définir une procédure/fonction}{259}{section.7.1}%
\contentsline {subsection}{\numberline {7.1.1}Corps de la procédure/fonction}{260}{subsection.7.1.1}%
\contentsline {subsection}{\numberline {7.1.2}Procédure sans paramètres}{260}{subsection.7.1.2}%
\contentsline {subsection}{\numberline {7.1.3}Fonction sans paramètres}{260}{subsection.7.1.3}%
\contentsline {subsection}{\numberline {7.1.4}Paramètres d’une fonction/procédure}{261}{subsection.7.1.4}%
\contentsline {subsubsection}{Utilisation d’une variable comme paramètre}{261}{subsubsection*.133}%
\contentsline {subsubsection}{Plusieurs paramètres}{261}{subsubsection*.134}%
\contentsline {subsubsection}{Valeurs par défaut des paramètres}{262}{subsubsection*.135}%
\contentsline {subsection}{\numberline {7.1.5}Variables locales ou globales}{264}{subsection.7.1.5}%
\contentsline {subsubsection}{Utilisation d’une variable globale}{265}{subsubsection*.136}%
\contentsline {subsection}{\numberline {7.1.6}Gestion des arguments nommés}{265}{subsection.7.1.6}%
\contentsline {subsection}{\numberline {7.1.7}Paramètres spéciaux}{267}{subsection.7.1.7}%
\contentsline {section}{\numberline {7.2}Documenter les fonctions}{270}{section.7.2}%
\contentsline {subsection}{\numberline {7.2.1}Annotations de fonctions}{271}{subsection.7.2.1}%
\contentsline {section}{\numberline {7.3}Création de bibliothèques de fonctions}{272}{section.7.3}%
\contentsline {subsection}{\numberline {7.3.1}Les modules en détail}{272}{subsection.7.3.1}%
\contentsline {subsection}{\numberline {7.3.2}Exécuter des modules comme des scripts}{274}{subsection.7.3.2}%
\contentsline {subsection}{\numberline {7.3.3}Les dossiers de recherche de modules}{274}{subsection.7.3.3}%
\contentsline {subsection}{\numberline {7.3.4}Modules Python «compilés»}{275}{subsection.7.3.4}%
\contentsline {subsection}{\numberline {7.3.5}Astuces pour les experts}{275}{subsection.7.3.5}%
\contentsline {subsection}{\numberline {7.3.6}Les paquets}{276}{subsection.7.3.6}%
\contentsline {subsubsection}{Importer un paquet}{277}{subsubsection*.137}%
\contentsline {subsubsection}{Références internes dans un paquet}{278}{subsubsection*.138}%
\contentsline {subsubsection}{Paquets dans plusieurs dossiers}{279}{subsubsection*.139}%
\contentsline {chapter}{\numberline {8}Les objets}{281}{chapter.8}%
\contentsline {section}{\numberline {8.1}Objet et caractéristiques}{281}{section.8.1}%
\contentsline {subsection}{\numberline {8.1.1}Type}{282}{subsection.8.1.1}%
\contentsline {subsection}{\numberline {8.1.2}Les attributs}{282}{subsection.8.1.2}%
\contentsline {subsection}{\numberline {8.1.3}Les méthodes}{283}{subsection.8.1.3}%
\contentsline {section}{\numberline {8.2}Classes}{284}{section.8.2}%
\contentsline {subsection}{\numberline {8.2.1}Portées et espaces de nommage en Python}{285}{subsection.8.2.1}%
\contentsline {subsubsection}{Exemple de portées et d’espaces de nommage}{287}{subsubsection*.140}%
\contentsline {subsection}{\numberline {8.2.2}Passages d’arguments}{287}{subsection.8.2.2}%
\contentsline {subsection}{\numberline {8.2.3}Méthodes spéciales \_\_repr\_\_ et \_\_str\_\_}{288}{subsection.8.2.3}%
\contentsline {subsection}{\numberline {8.2.4}Variables privées, l’encapsulation}{290}{subsection.8.2.4}%
\contentsline {subsection}{\numberline {8.2.5}Duck\sphinxhyphen {}typing}{292}{subsection.8.2.5}%
\contentsline {section}{\numberline {8.3}Documenter les classes d’objets}{295}{section.8.3}%
\contentsline {section}{\numberline {8.4}Notions avancées en objet}{298}{section.8.4}%
\contentsline {subsection}{\numberline {8.4.1}Extension de classes}{298}{subsection.8.4.1}%
\contentsline {subsubsection}{Hériter}{298}{subsubsection*.141}%
\contentsline {paragraph}{Sous\sphinxhyphen {}typage}{300}{paragraph*.142}%
\contentsline {subsubsection}{Redéfinition de méthodes, la surcharge}{300}{subsubsection*.143}%
\contentsline {subsubsection}{Héritage Conditionnel}{301}{subsubsection*.144}%
\contentsline {paragraph}{Proxy de classes}{301}{paragraph*.145}%
\contentsline {paragraph}{Héritage conditionnel}{302}{paragraph*.146}%
\contentsline {subsubsection}{Héritages Multiples}{303}{subsubsection*.147}%
\contentsline {paragraph}{Ordre d’héritage}{304}{paragraph*.148}%
\contentsline {paragraph}{Mixins}{306}{paragraph*.149}%
\contentsline {subsection}{\numberline {8.4.2}L’héritage conditionnel}{309}{subsection.8.4.2}%
\contentsline {subsubsection}{Avec init()}{309}{subsubsection*.150}%
\contentsline {subsubsection}{Avec new()}{313}{subsubsection*.151}%
\contentsline {subsubsection}{Avec une metaclass}{317}{subsubsection*.152}%
\contentsline {subsection}{\numberline {8.4.3}Opérateurs}{320}{subsection.8.4.3}%
\contentsline {subsubsection}{Opérateurs arithmétiques}{321}{subsubsection*.153}%
\contentsline {subsubsection}{Opérateurs arithmétiques unaires}{322}{subsubsection*.154}%
\contentsline {subsubsection}{Opérateurs de comparaison}{322}{subsubsection*.155}%
\contentsline {subsubsection}{Autres opérateurs}{323}{subsubsection*.156}%
\contentsline {subsubsection}{Exercice Arithmétique simple}{323}{subsubsection*.157}%
\contentsline {subsection}{\numberline {8.4.4}Les attributs de classe}{326}{subsection.8.4.4}%
\contentsline {subsection}{\numberline {8.4.5}Méthodes de Classes}{328}{subsection.8.4.5}%
\contentsline {subsection}{\numberline {8.4.6}Méthodes statiques}{329}{subsection.8.4.6}%
\contentsline {subsection}{\numberline {8.4.7}Recherche d’attributs}{330}{subsection.8.4.7}%
\contentsline {subsection}{\numberline {8.4.8}Les propriétés}{331}{subsection.8.4.8}%
\contentsline {subsection}{\numberline {8.4.9}Classes abstraites}{333}{subsection.8.4.9}%
\contentsline {subsubsection}{Exercice : Base de données}{334}{subsubsection*.158}%
\contentsline {section}{\numberline {8.5}La visualisation de l’architecture objets}{337}{section.8.5}%
\contentsline {subsection}{\numberline {8.5.1}Pyreverse}{337}{subsection.8.5.1}%
\contentsline {subsubsection}{Les options de la ligne de commande}{338}{subsubsection*.159}%
\contentsline {subsubsection}{Utilisation en ligne de commande}{338}{subsubsection*.160}%
\contentsline {subsection}{\numberline {8.5.2}Mise en œuvre dans GitLab}{342}{subsection.8.5.2}%
\contentsline {subsubsection}{Avec un script}{342}{subsubsection*.161}%
\contentsline {subsubsection}{Générer des diagrammes UML avec GitLab}{347}{subsubsection*.162}%
\contentsline {chapter}{\numberline {9}La gestion des erreurs}{353}{chapter.9}%
\contentsline {section}{\numberline {9.1}Les erreurs de syntaxe}{353}{section.9.1}%
\contentsline {section}{\numberline {9.2}Exceptions}{354}{section.9.2}%
\contentsline {section}{\numberline {9.3}Gestion des exceptions}{354}{section.9.3}%
\contentsline {section}{\numberline {9.4}Déclencher des exceptions}{357}{section.9.4}%
\contentsline {section}{\numberline {9.5}Chaînage d’exceptions}{358}{section.9.5}%
\contentsline {section}{\numberline {9.6}Exceptions définies par l’utilisateur}{359}{section.9.6}%
\contentsline {section}{\numberline {9.7}Définition d’actions de nettoyage}{360}{section.9.7}%
\contentsline {section}{\numberline {9.8}Actions de nettoyage prédéfinies}{362}{section.9.8}%
\contentsline {chapter}{\numberline {10}Les expressions régulières}{363}{chapter.10}%
\contentsline {section}{\numberline {10.1}La bibliothèque re}{364}{section.10.1}%
\contentsline {subsection}{\numberline {10.1.1}Créer un objet pour la recherche}{364}{subsection.10.1.1}%
\contentsline {subsection}{\numberline {10.1.2}Recherches}{365}{subsection.10.1.2}%
\contentsline {subsubsection}{Recherches sur des mots}{365}{subsubsection*.163}%
\contentsline {subsubsection}{Recherches dans une phrase}{366}{subsubsection*.164}%
\contentsline {subsection}{\numberline {10.1.3}Remplacer une expression}{367}{subsection.10.1.3}%
\contentsline {subsubsection}{Exercice de mise en pratique des expressions régulières}{368}{subsubsection*.165}%
\contentsline {chapter}{\numberline {11}Stocker des données}{371}{chapter.11}%
\contentsline {section}{\numberline {11.1}Lire et Écrire des fichiers}{371}{section.11.1}%
\contentsline {subsection}{\numberline {11.1.1}Lecture et écriture de fichiers}{371}{subsection.11.1.1}%
\contentsline {subsubsection}{Bien ouvrir ses fichiers}{372}{subsubsection*.166}%
\contentsline {subsubsection}{Méthodes des objets fichiers}{373}{subsubsection*.167}%
\contentsline {section}{\numberline {11.2}Stocker des objets}{376}{section.11.2}%
\contentsline {subsection}{\numberline {11.2.1}pickle}{376}{subsection.11.2.1}%
\contentsline {section}{\numberline {11.3}Stocker des données de façon persistante}{378}{section.11.3}%
\contentsline {subsection}{\numberline {11.3.1}Archivage (zip)}{378}{subsection.11.3.1}%
\contentsline {subsubsection}{Compression de fichiers individuels}{378}{subsubsection*.168}%
\contentsline {subsubsection}{Compression de plusieurs fichiers}{378}{subsubsection*.169}%
\contentsline {subsubsection}{Extraire les fichiers}{379}{subsubsection*.170}%
\contentsline {subsubsection}{Extraire des fichiers individuels}{379}{subsubsection*.171}%
\contentsline {subsubsection}{Lecture de fichiers Zip}{379}{subsubsection*.172}%
\contentsline {subsection}{\numberline {11.3.2}CSV}{381}{subsection.11.3.2}%
\contentsline {subsection}{\numberline {11.3.3}JSON}{382}{subsection.11.3.3}%
\contentsline {subsection}{\numberline {11.3.4}XML}{383}{subsection.11.3.4}%
\contentsline {subsubsection}{La Validation}{383}{subsubsection*.173}%
\contentsline {paragraph}{Schéma DTD}{383}{paragraph*.174}%
\contentsline {paragraph}{Schéma XML XSD}{387}{paragraph*.175}%
\contentsline {subsubsection}{La lecture}{390}{subsubsection*.176}%
\contentsline {subsubsection}{L’écriture}{392}{subsubsection*.177}%
\contentsline {section}{\numberline {11.4}Les annuaires LDAP}{400}{section.11.4}%
\contentsline {subsection}{\numberline {11.4.1}Installation d’un annuaire LDAP}{400}{subsection.11.4.1}%
\contentsline {subsubsection}{Remplir l’annuaire LDAP}{401}{subsubsection*.178}%
\contentsline {subsection}{\numberline {11.4.2}Module Python LDAP}{402}{subsection.11.4.2}%
\contentsline {subsubsection}{Installation}{402}{subsubsection*.179}%
\contentsline {subsubsection}{Se connecter au serveur LDAP}{403}{subsubsection*.180}%
\contentsline {subsubsection}{Lire des entrées LDAP}{403}{subsubsection*.181}%
\contentsline {paragraph}{Lire les données LDAP}{403}{paragraph*.182}%
\contentsline {paragraph}{Lire le schema LDAP}{405}{paragraph*.183}%
\contentsline {subsubsection}{Écrire des entrées LDAP}{407}{subsubsection*.184}%
\contentsline {paragraph}{Renommer des entrées LDAP}{409}{paragraph*.185}%
\contentsline {paragraph}{Déplacer une entrée LDAP}{410}{paragraph*.186}%
\contentsline {subsubsection}{Supprimer des entrées LDAP}{410}{subsubsection*.187}%
\contentsline {subsubsection}{Modifier des données}{411}{subsubsection*.188}%
\contentsline {subsubsection}{Générer un fichier LDIF}{413}{subsubsection*.189}%
\contentsline {paragraph}{Importer un fichier LDIF dans l’annuaire}{417}{paragraph*.190}%
\contentsline {section}{\numberline {11.5}Les bases de données}{419}{section.11.5}%
\contentsline {subsection}{\numberline {11.5.1}SQLite3}{419}{subsection.11.5.1}%
\contentsline {subsubsection}{Installation}{419}{subsubsection*.191}%
\contentsline {subsubsection}{Créer une base de données SQLite}{419}{subsubsection*.192}%
\contentsline {subsubsection}{Créer des tables}{419}{subsubsection*.193}%
\contentsline {subsubsection}{Insérer des données}{420}{subsubsection*.194}%
\contentsline {subsubsection}{Lire des données}{421}{subsubsection*.195}%
\contentsline {subsubsection}{Effacer des données}{421}{subsubsection*.196}%
\contentsline {subsection}{\numberline {11.5.2}SQLAlchemy}{422}{subsection.11.5.2}%
\contentsline {subsubsection}{Installation}{422}{subsubsection*.197}%
\contentsline {subsubsection}{connexion à la base de données}{422}{subsubsection*.198}%
\contentsline {subsubsection}{Création d’une base de données}{423}{subsubsection*.199}%
\contentsline {subsubsection}{Création avec une table}{424}{subsubsection*.200}%
\contentsline {subsubsection}{Ajout d’un enregistrement}{425}{subsubsection*.201}%
\contentsline {subsubsection}{Faire des recherches}{426}{subsubsection*.202}%
\contentsline {subsubsection}{Ajouter une table}{426}{subsubsection*.203}%
\contentsline {subsubsection}{Créer une relation}{426}{subsubsection*.204}%
\contentsline {chapter}{\numberline {12}Le réseau}{429}{chapter.12}%
\contentsline {section}{\numberline {12.1}Les services}{429}{section.12.1}%
\contentsline {subsection}{\numberline {12.1.1}systemd}{429}{subsection.12.1.1}%
\contentsline {subsubsection}{Creation d’un service utilisateur}{429}{subsubsection*.205}%
\contentsline {subsubsection}{Démarrer le service automatiquement}{433}{subsubsection*.206}%
\contentsline {subsubsection}{Redémarrage automatique après échec}{434}{subsubsection*.207}%
\contentsline {subsubsection}{Notification de démarrage à Systemd}{436}{subsubsection*.208}%
\contentsline {subsubsection}{Supprimer le démarrage automatique du service}{438}{subsubsection*.209}%
\contentsline {subsubsection}{Transformer en service système}{438}{subsubsection*.210}%
\contentsline {section}{\numberline {12.2}Les Sockets}{441}{section.12.2}%
\contentsline {subsection}{\numberline {12.2.1}Principes du réseau}{441}{subsection.12.2.1}%
\contentsline {subsubsection}{Communication des machines distantes sur le réseau ?}{441}{subsubsection*.211}%
\contentsline {subsubsection}{Atteindre le bon service ?}{441}{subsubsection*.212}%
\contentsline {subsubsection}{Un socket c’est quoi ?}{442}{subsubsection*.213}%
\contentsline {subsection}{\numberline {12.2.2}Sockets en python}{442}{subsection.12.2.2}%
\contentsline {section}{\numberline {12.3}Clients de serveurs}{444}{section.12.3}%
\contentsline {subsection}{\numberline {12.3.1}HTTP}{444}{subsection.12.3.1}%
\contentsline {subsubsection}{Connexion à un serveur http}{444}{subsubsection*.214}%
\contentsline {subsubsection}{Client à un serveur http}{445}{subsubsection*.215}%
\contentsline {subsection}{\numberline {12.3.2}SMTP}{446}{subsection.12.3.2}%
\contentsline {subsubsection}{Connexion à un serveur de messagerie}{446}{subsubsection*.216}%
\contentsline {subsubsection}{Rédiger et envoyer un email}{446}{subsubsection*.217}%
\contentsline {subsection}{\numberline {12.3.3}FTP}{453}{subsection.12.3.3}%
\contentsline {subsubsection}{Connexion à un serveur ftp}{453}{subsubsection*.218}%
\contentsline {subsubsection}{Client à un serveur ftp}{453}{subsubsection*.219}%
\contentsline {section}{\numberline {12.4}Le WEB}{456}{section.12.4}%
\contentsline {subsection}{\numberline {12.4.1}Créer un serveur HTTP}{456}{subsection.12.4.1}%
\contentsline {subsubsection}{Servir des pages statiques}{456}{subsubsection*.220}%
\contentsline {subsubsection}{Servir des pages dynamiques}{457}{subsubsection*.221}%
\contentsline {subsection}{\numberline {12.4.2}Flask}{461}{subsection.12.4.2}%
\contentsline {subsubsection}{Installer Flask}{461}{subsubsection*.222}%
\contentsline {subsubsection}{Première page WEB}{461}{subsubsection*.223}%
\contentsline {subsubsection}{Structure des projets}{462}{subsubsection*.224}%
\contentsline {subsubsection}{Configurer le projet}{464}{subsubsection*.225}%
\contentsline {subsubsection}{Les routes}{465}{subsubsection*.226}%
\contentsline {paragraph}{Avec paramètres}{467}{paragraph*.227}%
\contentsline {subsubsection}{Serveur REST}{469}{subsubsection*.228}%
\contentsline {paragraph}{Renvoyer des données JSON}{469}{paragraph*.229}%
\contentsline {paragraph}{Traitement de requêtes REST}{472}{paragraph*.230}%
\contentsline {subsubsection}{Les templates}{477}{subsubsection*.231}%
\contentsline {subsubsection}{Les fichiers statiques}{480}{subsubsection*.232}%
\contentsline {subsubsection}{Héritages}{482}{subsubsection*.233}%
\contentsline {subsubsection}{Ajout de modules Flask}{485}{subsubsection*.234}%
\contentsline {subsubsection}{Contrôle d’accès}{513}{subsubsection*.235}%
\contentsline {subsection}{\numberline {12.4.3}Remi}{528}{subsection.12.4.3}%
\contentsline {subsubsection}{Installer Remi}{528}{subsubsection*.236}%
\contentsline {subsubsection}{Paramètres de lancement}{530}{subsubsection*.237}%
\contentsline {paragraph}{Fonctionnement standalone}{531}{paragraph*.238}%
\contentsline {subsubsection}{Gestion des événements}{533}{subsubsection*.239}%
\contentsline {subsubsection}{Gestion de l’authentification}{534}{subsubsection*.240}%
\contentsline {subsubsection}{HTML avec REMI}{535}{subsubsection*.241}%
\contentsline {subsubsection}{Éditeur WYSIWYG pour REMI}{536}{subsubsection*.242}%
\contentsline {subsection}{\numberline {12.4.4}Django}{547}{subsection.12.4.4}%
\contentsline {subsubsection}{Installation}{547}{subsubsection*.243}%
\contentsline {subsubsection}{Création d’un projet}{547}{subsubsection*.244}%
\contentsline {paragraph}{Modules applicatifs}{548}{paragraph*.245}%
\contentsline {subsubsection}{Lancer le serveur}{549}{subsubsection*.246}%
\contentsline {subsubsection}{Les vues}{553}{subsubsection*.247}%
\contentsline {subsubsection}{Modèles}{555}{subsubsection*.248}%
\contentsline {paragraph}{Utiliser le modèle Django}{556}{paragraph*.249}%
\contentsline {paragraph}{Créer son modèle}{566}{paragraph*.250}%
\contentsline {subsubsection}{Administration}{568}{subsubsection*.251}%
\contentsline {chapter}{\numberline {13}Générer des documents}{573}{chapter.13}%
\contentsline {section}{\numberline {13.1}PDF}{573}{section.13.1}%
\contentsline {subsection}{\numberline {13.1.1}Installation}{573}{subsection.13.1.1}%
\contentsline {subsection}{\numberline {13.1.2}Premiers documents}{573}{subsection.13.1.2}%
\contentsline {subsection}{\numberline {13.1.3}Mise en page}{576}{subsection.13.1.3}%
\contentsline {subsection}{\numberline {13.1.4}Dessin}{580}{subsection.13.1.4}%
\contentsline {subsection}{\numberline {13.1.5}Tableaux}{582}{subsection.13.1.5}%
\contentsline {subsection}{\numberline {13.1.6}HTML vers PDF}{583}{subsection.13.1.6}%
\contentsline {subsection}{\numberline {13.1.7}XSL\sphinxhyphen {}FO}{585}{subsection.13.1.7}%
\contentsline {subsubsection}{Installation}{585}{subsubsection*.252}%
\contentsline {subsubsection}{Générer un PDF}{585}{subsubsection*.253}%
\contentsline {subsubsection}{Modèle XSL\sphinxhyphen {}FO}{586}{subsubsection*.254}%
\contentsline {subsection}{\numberline {13.1.8}WeasyPrint}{589}{subsection.13.1.8}%
\contentsline {subsubsection}{Installation}{589}{subsubsection*.255}%
\contentsline {subsubsection}{Conversion directe}{589}{subsubsection*.256}%
\contentsline {subsubsection}{Code}{592}{subsubsection*.257}%
\contentsline {subsection}{\numberline {13.1.9}LaTeX vers PDF}{593}{subsection.13.1.9}%
\contentsline {subsubsection}{Installation}{593}{subsubsection*.258}%
\contentsline {subsubsection}{Utilisation}{593}{subsubsection*.259}%
\contentsline {subsubsection}{Graphiques}{595}{subsubsection*.260}%
\contentsline {section}{\numberline {13.2}Opendocument}{598}{section.13.2}%
\contentsline {subsection}{\numberline {13.2.1}Installation}{598}{subsection.13.2.1}%
\contentsline {subsection}{\numberline {13.2.2}Générer des documents textes}{599}{subsection.13.2.2}%
\contentsline {subsection}{\numberline {13.2.3}Générer des documents classeur}{601}{subsection.13.2.3}%
\contentsline {chapter}{\numberline {14}Approfondir ce cour}{605}{chapter.14}%
\contentsline {chapter}{\numberline {15}Fin du cours}{607}{chapter.15}%
\contentsline {section}{\numberline {15.1}Bilan avec les stagiaires}{607}{section.15.1}%
\contentsline {subsection}{\numberline {15.1.1}Attentes}{607}{subsection.15.1.1}%
\contentsline {subsection}{\numberline {15.1.2}Évaluations}{607}{subsection.15.1.2}%
\contentsline {subsection}{\numberline {15.1.3}Administratif}{607}{subsection.15.1.3}%
