<?xml version="1.0" encoding="UTF-8" standalone="no"?>
<svg
   xmlns:dc="http://purl.org/dc/elements/1.1/"
   xmlns:cc="http://creativecommons.org/ns#"
   xmlns:rdf="http://www.w3.org/1999/02/22-rdf-syntax-ns#"
   xmlns:svg="http://www.w3.org/2000/svg"
   xmlns="http://www.w3.org/2000/svg"
   xmlns:sodipodi="http://sodipodi.sourceforge.net/DTD/sodipodi-0.dtd"
   xmlns:inkscape="http://www.inkscape.org/namespaces/inkscape"
   width="793.70081"
   height="793.70081"
   id="svg2"
   version="1.1"
   inkscape:version="1.0.2 (e86c870879, 2021-01-15, custom)"
   sodipodi:docname="bsddevilgirl.svg">
  <title
     id="title5496">Devil girl</title>
  <defs
     id="defs4">
    <filter
       style="color-interpolation-filters:sRGB;"
       inkscape:label="Brilliance"
       id="filter89">
      <feColorMatrix
         values="2 -0.5 -0.5 0 0 -0.5 2 -0.5 0 0 -0.5 -0.5 2 0 0 0 0 0 1 0 "
         id="feColorMatrix87" />
    </filter>
    <filter
       style="color-interpolation-filters:sRGB;"
       inkscape:label="Brilliance"
       id="filter93">
      <feColorMatrix
         values="2 -0.5 -0.5 0 0 -0.5 2 -0.5 0 0 -0.5 -0.5 2 0 0 0 0 0 1 0 "
         id="feColorMatrix91" />
    </filter>
    <filter
       style="color-interpolation-filters:sRGB;"
       inkscape:label="Brilliance"
       id="filter101">
      <feColorMatrix
         values="2 -0.5 -0.5 0 0 -0.5 2 -0.5 0 0 -0.5 -0.5 2 0 0 0 0 0 1 0 "
         id="feColorMatrix99" />
    </filter>
    <filter
       inkscape:label="Neon"
       inkscape:menu="Bevels"
       inkscape:menu-tooltip="Neon light effect"
       x="-0.25"
       y="-0.25"
       width="1.5"
       height="1.5"
       style="color-interpolation-filters:sRGB;"
       id="filter149">
      <feGaussianBlur
         stdDeviation="1"
         result="result1"
         id="feGaussianBlur127" />
      <feComposite
         in="result1"
         in2="result1"
         result="result4"
         operator="in"
         id="feComposite129" />
      <feGaussianBlur
         stdDeviation="7"
         result="result6"
         in="result4"
         id="feGaussianBlur131" />
      <feComposite
         operator="over"
         in="result6"
         in2="result4"
         result="result8"
         id="feComposite133" />
      <feComposite
         operator="in"
         result="fbSourceGraphic"
         in="result6"
         in2="result8"
         id="feComposite135" />
      <feSpecularLighting
         specularExponent="45"
         specularConstant="2"
         surfaceScale="2.5"
         lighting-color="rgb(255,255,255)"
         result="result1"
         in="fbSourceGraphic"
         id="feSpecularLighting139">
        <fePointLight
           z="20000"
           y="-10000"
           x="-5000"
           id="fePointLight137" />
      </feSpecularLighting>
      <feComposite
         operator="in"
         result="result2"
         in="result1"
         in2="fbSourceGraphic"
         id="feComposite141" />
      <feComposite
         k3="1.5"
         k2="1.2"
         operator="arithmetic"
         result="result4"
         in="fbSourceGraphic"
         in2="result2"
         id="feComposite143" />
      <feComposite
         operator="over"
         in="result9"
         in2="result4"
         result="result9"
         id="feComposite145" />
      <feBlend
         mode="screen"
         in2="result9"
         id="feBlend147" />
    </filter>
  </defs>
  <sodipodi:namedview
     id="base"
     pagecolor="#ffffff"
     bordercolor="#666666"
     borderopacity="1.0"
     inkscape:pageopacity="0.0"
     inkscape:pageshadow="2"
     inkscape:zoom="0.50764739"
     inkscape:cx="528.82829"
     inkscape:cy="280.16357"
     inkscape:document-units="px"
     inkscape:current-layer="layer1"
     showgrid="false"
     inkscape:window-width="1920"
     inkscape:window-height="978"
     inkscape:window-x="0"
     inkscape:window-y="0"
     inkscape:window-maximized="1"
     showguides="true"
     inkscape:guide-bbox="true"
     units="mm"
     inkscape:snap-global="false"
     inkscape:document-rotation="0" />
  <metadata
     id="metadata7">
    <rdf:RDF>
      <cc:Work
         rdf:about="">
        <dc:format>image/svg+xml</dc:format>
        <dc:type
           rdf:resource="http://purl.org/dc/dcmitype/StillImage" />
        <dc:title>Devil girl</dc:title>
        <cc:license
           rdf:resource="http://creativecommons.org/publicdomain/zero/1.0/" />
      </cc:Work>
      <cc:License
         rdf:about="http://creativecommons.org/publicdomain/zero/1.0/">
        <cc:permits
           rdf:resource="http://creativecommons.org/ns#Reproduction" />
        <cc:permits
           rdf:resource="http://creativecommons.org/ns#Distribution" />
        <cc:permits
           rdf:resource="http://creativecommons.org/ns#DerivativeWorks" />
      </cc:License>
    </rdf:RDF>
  </metadata>
  <g
     inkscape:label="Vrstva 1"
     inkscape:groupmode="layer"
     id="layer1"
     transform="translate(0,-328.8189)"
     style="display:inline">
    <path
       style="fill:#aa0000;fill-opacity:1;fill-rule:evenodd;stroke:#000000;stroke-width:1px;stroke-linecap:butt;stroke-linejoin:miter;stroke-opacity:1;filter:url(#filter93)"
       d="m 167.43245,1032.5023 27.00524,-75.6147 41.40802,-79.21535 75.61466,10.80209 77.415,27.00524 113.42198,-25.20489 9.00175,19.80384 99.01919,-39.60768 h 45.00872 l 63.01222,50.40977 43.20837,72.01396 -32.40628,61.21192 -180.03489,-18.0035 -61.21187,-5.4011 -118.82303,50.4098 -138.62687,-7.2014 z"
       id="path5498"
       inkscape:connector-curvature="0" />
    <path
       style="fill:#aa0000;fill-rule:evenodd;stroke:#000000;stroke-width:1px;stroke-linecap:butt;stroke-linejoin:miter;stroke-opacity:1;filter:url(#filter101)"
       d="m 30.605932,559.01049 72.013958,27.00523 41.40802,9.00175 -14.40279,32.40628 43.20838,37.80733 16.20314,37.80732 5.40105,30.60594 -14.4028,50.40977 -28.80558,34.20663 -9.00174,32.40628 18.00349,39.60767 48.60942,27.00524 -16.20314,37.80732 -36.00698,-10.80209 -45.00873,-63.01221 -1.80034,-50.40977 43.20837,-57.61117 10.80209,-54.01047 -25.20488,-46.80907 -25.20489,-27.00523 -37.807325,30.60593 z"
       id="path5492"
       inkscape:connector-curvature="0" />
    <path
       style="fill:#aa0000;fill-opacity:1;fill-rule:evenodd;stroke:#000000;stroke-width:1px;stroke-linecap:butt;stroke-linejoin:miter;stroke-opacity:1;filter:url(#filter89)"
       d="m 217.84222,632.82479 36.00698,-178.23454 81.0157,-63.01221 106.22059,-32.40628 73.81431,7.20139 75.61465,28.80558 64.81256,63.01222 43.20838,151.22931 -5.40105,79.21535 -46.80907,63.01221 z"
       id="path5502"
       inkscape:connector-curvature="0" />
    <path
       style="fill:#ffb380;fill-opacity:1;fill-rule:evenodd;stroke:#000000;stroke-width:1px;stroke-linecap:butt;stroke-linejoin:miter;stroke-opacity:1"
       d="m 237.64606,656.22933 61.21186,-50.40977 90.01745,-1.80035 59.41152,32.40628 75.61465,-30.60593 50.40977,-7.20139 48.60942,21.60418 30.60593,41.40803 -1.80035,84.6164 -70.2136,88.2171 -118.82303,72.01395 -55.81082,-9.00174 -70.21361,-48.60942 -84.6164,-93.61815 z"
       id="path5500"
       inkscape:connector-curvature="0" />
    <path
       style="opacity:1;fill:#ff2323;fill-opacity:1;fill-rule:nonzero;stroke:none;stroke-width:1;stroke-miterlimit:4;stroke-dasharray:none;stroke-opacity:1"
       id="path5513"
       sodipodi:type="arc"
       sodipodi:cx="442.85168"
       sodipodi:cy="853.07825"
       sodipodi:rx="24.869625"
       sodipodi:ry="12.496371"
       sodipodi:start="1.5781756"
       sodipodi:end="1.5615269"
       sodipodi:open="true"
       d="m 442.66817,865.57428 a 24.869625,12.496371 0 0 1 -24.68598,-12.53623 24.869625,12.496371 0 0 1 24.84599,-12.45617 24.869625,12.496371 0 0 1 24.89281,12.43255 24.869625,12.496371 0 0 1 -24.63878,12.55965"
       sodipodi:arc-type="arc" />
    <path
       style="fill:#b3b3b3;fill-rule:evenodd;stroke:#000000;stroke-width:1px;stroke-linecap:butt;stroke-linejoin:miter;stroke-opacity:1;filter:url(#filter149)"
       d="m 741.74414,82.5625 -50.41016,43.20898 -30.60546,14.40235 -30.60547,-5.40039 v 61.21094 l 25.20312,55.81054 86.41797,-68.41211 z m -574.3125,5.402344 -14.40234,54.009766 25.20508,72.01367 109.82226,16.20313 5.40039,-43.20899 -5.40039,-46.80859 -21.60547,1.80078 -63.01172,-19.80469 z"
       transform="translate(0,328.8189)"
       id="path5504" />
    <path
       style="fill:#ffffff;fill-rule:evenodd;stroke:#000000;stroke-width:1px;stroke-linecap:butt;stroke-linejoin:miter;stroke-opacity:1"
       d="m 500.66324,749.8687 16.61698,-28.3104 33.54167,-25.84863 54.46674,9.8471 -6.46216,29.54129 -17.23241,21.23279 -39.08066,9.23166 z"
       id="path5509"
       inkscape:connector-curvature="0" />
    <path
       style="opacity:1;fill:#008080;fill-opacity:1;fill-rule:nonzero;stroke:none;stroke-width:1;stroke-miterlimit:4;stroke-dasharray:none;stroke-opacity:1"
       id="path5511"
       sodipodi:type="arc"
       sodipodi:cx="544.20587"
       sodipodi:cy="722.17371"
       sodipodi:rx="13.385895"
       sodipodi:ry="13.847478"
       sodipodi:start="1.5781756"
       sodipodi:end="1.5615269"
       sodipodi:open="true"
       d="m 544.10709,736.02081 a 13.385895,13.847478 0 0 1 -13.28704,-13.89165 13.385895,13.847478 0 0 1 13.37317,-13.80293 13.385895,13.847478 0 0 1 13.39837,13.77675 13.385895,13.847478 0 0 1 -13.26164,13.91761"
       sodipodi:arc-type="arc" />
    <path
       id="path3869"
       style="color:#000000;font-style:normal;font-variant:normal;font-weight:normal;font-stretch:normal;font-size:medium;line-height:normal;font-family:Sans;-inkscape-font-specification:Sans;text-indent:0;text-align:start;text-decoration:none;text-decoration-line:none;letter-spacing:normal;word-spacing:normal;text-transform:none;writing-mode:lr-tb;direction:ltr;baseline-shift:baseline;text-anchor:start;display:inline;overflow:visible;visibility:visible;fill:#000000;fill-opacity:1;fill-rule:evenodd;stroke:none;stroke-width:8.85333;marker:none;enable-background:accumulate"
       d="m 59.401609,593.14737 c 13.270149,15.02008 26.963376,27.59596 44.663161,35.97334 8.93969,4.23122 13.7127,-9.08992 6.33177,-12.67764 -16.074265,-7.8134 -30.671214,-15.82679 -43.283843,-30.10264 -4.735365,-4.9338 -11.713392,2.12841 -7.711088,6.80694 z M 495.14899,901.71905 c -39.45591,45.02527 -113.34904,32.26738 -199.62657,-1.27068 -30.87047,-13.84865 -55.33406,-19.78784 -77.03907,18.13013 -13.86809,24.22708 -27.60536,56.02137 -37.71965,83.8848 -4.94278,13.6166 -8.66256,29.4533 13.27299,37.9826 105.72174,41.1083 214.42764,22.3745 266.12436,-9.4756 -80.16799,-13.0812 -145.8146,-38.58354 -232.77151,-22.7715 6.86692,-28.39659 57.26665,0.1327 62.61256,-70.14771 25.52755,64.24821 92.53084,61.92094 157.0132,44.53081 64.48234,-17.39012 107.80595,-20.66989 158.07187,-18.27764 4.79365,-8.29605 11.43258,-15.63021 19.91683,-22.00252 5.89227,19.76214 18.84722,32.78341 32.80382,41.73907 -80.64304,-9.63021 -151.03278,-7.27629 -200.57148,13.37284 54.77632,5.79835 105.26656,27.95285 158.45823,35.58795 99.04517,14.2168 166.98765,-4.0172 97.45299,-101.77937 -37.79835,-53.14255 -79.34889,-67.01822 -114.44601,-49.7304 -16.48539,8.12024 -43.09273,21.26322 -71.65044,32.63215 -13.5243,5.38407 -25.14913,3.37319 -31.90212,-12.40493 z M 51.844407,574.88432 c -5.079182,0.46291 -8.817506,6.22011 -5.111352,11.7521 14.914316,22.26178 25.56185,42.17839 33.773039,66.60818 2.483403,7.59668 6.702848,8.20843 11.060491,4.82888 6.726346,-5.21659 14.228275,-12.18866 21.501365,-20.14174 49.6238,38.98491 84.23448,96.28236 35.64473,152.95068 -64.333754,75.02995 -8.29313,136.56219 41.95502,154.99141 l 11.77021,-25.79933 c -68.37872,-22.52826 -77.58085,-69.58564 -44.78369,-113.41176 47.02206,-62.83457 46.93625,-114.20332 -35.23228,-179.71521 5.1043,-6.48735 9.79796,-13.36814 13.65076,-20.31277 1.65662,-4.99453 -1.14932,-7.63927 -6.54951,-8.5055 -27.17677,-4.35939 -49.817949,-12.40593 -74.013671,-22.64155 -1.238034,-0.52372 -2.49299,-0.71023 -3.665112,-0.60339 z M 459.97252,355.79228 c -72.30343,-1.32997 -149.87298,27.01298 -211.80437,100.53685 -40.57898,2.42333 -64.00346,-22.50455 -85.28707,-46.97232 -19.69002,47.90083 -25.91977,143.73524 44.69879,187.3027 -12.28727,49.80321 -1.75598,102.64067 41.64148,159.822 28.20445,54.56572 82.0359,93.56588 140.54118,129.06927 13.53014,8.21064 10.46887,27.78926 -11.51031,21.85763 -38.36948,-10.35495 -119.08636,-88.14548 -161.89991,-13.32279 l -10.31288,18.02319 c -62.22251,-24.79655 -72.44707,-62.99912 -35.35048,-109.86882 44.18031,-55.8196 41.96702,-115.40121 -36.20528,-174.77966 5.82883,-7.80966 11.21947,-15.91086 15.76513,-24.10715 2.39547,-7.22437 -1.69392,-11.09368 -9.50235,-12.34661 -39.29641,-6.30544 -72.012857,-17.90939 -106.998738,-32.71457 -9.547414,-4.04022 -19.285709,6.26378 -12.690149,16.11206 21.565265,32.20059 36.951915,60.96623 48.824723,96.30279 3.590827,10.98823 9.674859,11.88925 15.975829,7.00084 7.508544,-5.82524 15.695165,-13.16659 23.884075,-21.49431 61.0928,46.34729 56.40411,93.21992 15.609,143.52149 -51.001949,62.88687 -14.4413,135.47869 57.22426,162.59934 -6.10867,13.80613 -11.60219,28.08312 -16.88678,44.74719 -12.13142,38.2541 6.95456,52.0412 25.00617,61.1216 105.04855,52.8415 235.05586,20.7001 320.1754,-24.6489 109.58127,33.2703 217.11887,39.0425 248.15012,0.9963 21.93757,-26.8968 19.46823,-47.55442 2.0414,-74.16626 -22.42042,-34.23736 -37.55716,-55.49949 -68.07699,-83.35763 -25.82004,-23.56821 -58.66833,-41.13652 -107.45039,-13.8441 -11.78835,6.59532 -34.26871,17.74574 -62.73774,29.07977 -13.21563,5.26138 -19.34413,-9.72982 -10.02317,-15.87593 78.74358,-51.92232 118.72157,-95.86477 146.23777,-137.73712 36.2405,-39.93325 53.14931,-97.84813 44.23517,-166.18928 59.21198,-35.4924 61.51624,-113.60058 37.90385,-183.0475 -21.01395,30.84612 -40.94393,58.14043 -79.2951,63.46432 C 626.81746,402.21436 547.23529,357.3974 459.97252,355.79228 Z M 279.31733,598.83553 c 77.1363,-13.35975 126.07829,1.00581 165.61906,32.10435 126.6789,-80.35023 236.74751,-26.60586 211.57692,98.04609 33.36251,-41.26414 37.13482,-89.62923 29.2436,-140.79333 l -21.92644,15.23258 C 625.86079,561.00633 613.53952,503.77955 629.87503,458.09947 l 18.12433,4.63942 C 585.48791,360.84896 387.82835,314.29721 257.98302,460.49872 c 3.87433,4.75033 15.42668,5.31773 25.87956,3.07284 14.97637,-3.21634 30.19006,73.29829 -3.41056,112.83504 -3.09715,8.10755 -3.38199,15.56219 -1.13469,22.42893 z M 502.70922,379.37236 c -163.37263,-16.70885 -219.00036,71.23037 -190.31391,82.68393 24.6866,9.85654 34.25746,-76.49863 190.31391,-82.68393 z m -54.6814,268.78518 c -151.8253,-122.02801 -336.09288,71.70717 -46.34768,234.80803 28.13001,15.83471 60.54245,19.31538 90.44641,2.33977 267.39356,-151.79156 151.59127,-371.1462 -44.09873,-237.1478 z M 282.90406,475.58039 c -50.46199,3.16435 -84.77947,-11.65341 -118.15557,-45.94402 -1.38039,78.77199 49.5526,110.94332 122.77887,109.10656 2.80223,-25.25351 1.95697,-46.98044 -4.6233,-63.16254 z m 355.18744,-4.23558 c -5.05502,13.74102 -8.90232,30.92269 2.41053,65.37138 65.32981,2.36178 94.88783,-55.78394 91.7624,-109.44526 -25.91853,37.15508 -57.42293,51.74929 -94.17293,44.07388 z M 424.2533,844.84158 c 2.05927,22.78959 30.70657,26.74653 33.43484,1.06162 -13.33139,-6.5829 -22.88224,-3.03002 -33.43484,-1.06162 z m 90.64143,-29.21699 c -10.48431,2.77335 -15.4424,4.30996 -25.82631,6.28553 -14.1207,-9.37881 -22.89933,-9.83657 -36.73492,-4.46357 -12.75938,-4.96593 -29.72892,0.65682 -36.44714,7.29606 -6.0225,-1.08418 -12.07739,-2.57026 -18.1751,-4.51644 -10.36082,-2.12764 -12.00754,11.62141 -4.53492,14.27648 5.93219,1.89335 9.59264,6.61581 15.437,7.76023 14.10593,49.2554 77.25587,43.57745 89.95519,-2.55515 6.44983,-1.46911 13.7835,-7.90598 20.14401,-9.58849 9.86605,-3.837 4.51931,-15.99963 -3.81781,-14.49465 z m -81.79475,-34.85694 c -5.12855,7.81951 1.51672,13.14636 6.94953,8.75823 10.06357,-8.12843 22.19336,-5.89521 29.55248,0.266 6.12166,5.12521 11.75868,-2.46711 7.31349,-8.86599 -10.13516,-14.58967 -33.62829,-15.69068 -43.8155,-0.15824 z m -133.43231,-5.11207 c 14.50475,5.6465 31.20908,5.40947 47.14974,2.97004 6.30392,-0.9647 3.81029,-9.02864 -0.86641,-8.20693 -15.7046,2.75933 -27.48043,4.18502 -44.26536,-0.97614 -5.89071,-1.81133 -6.93046,5.39948 -2.01803,6.21303 z m 50.02002,-71.71994 c 24.78805,5.72763 36.9788,13.33254 44.13203,21.24806 4.60211,5.09251 12.20513,-1.90715 7.77735,-6.77731 -8.83009,-9.71231 -24.05369,-16.50069 -50.02187,-22.03699 -5.95379,-1.26933 -6.96274,6.39353 -1.88751,7.56624 z m -74.17563,-5.66063 c 7.36007,10.68416 15.52511,19.75967 24.259,27.41251 -0.44544,4.75004 -1.51125,8.21153 -6.90414,12.53431 8.38953,2.58776 15.43379,1.33975 22.14491,-0.94208 3.38727,2.22782 6.85436,4.28476 10.34149,6.17081 0.19723,5.24496 -0.0599,9.90613 -5.04682,14.80947 12.0551,1.74169 18.36575,-0.75238 27.39857,-5.07043 4.36832,1.48357 8.76519,2.78946 13.16596,3.85853 -4.75618,5.43408 -8.30939,7.50906 -12.37139,10.97203 10.7999,-0.34006 20.15587,-2.95639 30.80773,-7.64368 11.15237,1.38275 22.15343,1.63404 32.63548,0.97565 -2.39203,-7.575 -9.12146,-17.18707 -19.64786,-25.55518 -44.19952,-4.53394 -79.02127,-12.79808 -116.78293,-37.52194 z m 280.81351,24.32867 c -0.10518,6.24198 -5.33843,11.21531 -11.68871,11.10827 -6.35027,-0.10708 -11.41289,-5.25391 -11.30768,-11.4959 0.10518,-6.24198 5.33843,-11.21535 11.68871,-11.1083 6.35027,0.10708 11.41288,5.25395 11.30768,11.49593 z m 63.24071,-43.7533 c -8.48733,13.39107 -19.94341,23.9702 -39.20285,16.82577 -42.32086,-15.69924 -63.70634,23.82455 -79.71549,47.09259 -5.96198,3.02586 -8.18057,7.16315 -9.44439,11.75642 5.7658,1.80002 9.89933,2.99457 16.3726,1.82348 18.27589,13.84937 48.58515,16.16343 72.04797,3.84515 5.41802,0.74648 11.24403,0.9731 13.95272,5.38058 3.41834,-5.46916 1.54444,-10.45654 0.1448,-15.47241 1.34151,-1.2877 2.62691,-2.64208 3.86001,-4.07446 6.6432,2.39445 12.40988,6.30171 17.6098,11.05185 -1.89134,-6.96965 -4.3141,-15.54664 -10.27216,-21.76056 0.91368,-1.70014 1.74983,-3.45544 2.52656,-5.29623 12.66498,1.42692 19.03767,-5.99092 24.42877,-14.79227 -6.93848,2.23293 -13.90884,6.65014 -20.75365,3.32546 0.7219,-3.17734 1.26463,-6.52478 1.60051,-10.03166 13.71004,-11.97526 8.17393,-20.44355 6.84487,-29.67371 z m -54.82866,23.48738 c 12.7793,0.33622 24.72899,5.49819 33.43504,13.21426 -0.70028,40.69311 -53.95119,61.30675 -91.21357,31.5013 2.81548,-6.29982 5.89798,-11.84847 9.1791,-16.67417 22.95075,37.80518 70.98555,10.31254 48.59943,-28.04139 z m -59.23119,-6.47387 c 18.22166,-6.39814 36.55772,-16.13706 51.95583,-32.15047 29.16892,-30.33449 46.25323,-17.32523 60.15943,-8.98728 3.36605,2.01825 6.3625,-2.19279 3.36601,-4.50669 -19.75379,-15.25411 -37.11393,-25.22009 -76.08908,7.2814 -13.22393,11.0275 -28.01809,19.6853 -45.36361,23.48992 -10.25424,2.2492 -7.01108,19.43162 5.97142,14.87312 z M 304.51698,650.2529 c 39.26244,-4.50569 95.49529,53.75341 109.45128,58.44356 12.29664,4.13248 12.57952,-10.39134 5.27734,-12.7953 -22.88172,-7.53294 -76.82356,-64.54141 -118.65946,-58.13863 -8.07764,1.23624 -6.85941,13.72863 3.93084,12.49037 z"
       inkscape:connector-curvature="0"
       sodipodi:nodetypes="cssccccssscccsccccsssscsscscsccsccssssccccssscsccssscscscsscssssssccccsccccccccscccsccssccccccccccccccccccccccssssscsssccssssscccccccccccccssssscsccccccccccccccccccccssssssssssss" />
  </g>
</svg>
