<?xml version="1.0" encoding="UTF-8" standalone="no"?>
<!-- Created with Inkscape (http://www.inkscape.org/) -->
<svg
    xmlns:inkscape="http://www.inkscape.org/namespaces/inkscape"
    xmlns:rdf="http://www.w3.org/1999/02/22-rdf-syntax-ns#"
    xmlns="http://www.w3.org/2000/svg"
    xmlns:sodipodi="http://sodipodi.sourceforge.net/DTD/sodipodi-0.dtd"
    xmlns:cc="http://creativecommons.org/ns#"
    xmlns:xlink="http://www.w3.org/1999/xlink"
    xmlns:dc="http://purl.org/dc/elements/1.1/"
    xmlns:svg="http://www.w3.org/2000/svg"
    xmlns:ns1="http://sozi.baierouge.fr"
    id="svg2"
    sodipodi:docname="girl.svg"
    inkscape:export-filename="/home/nicu/Desktop/pacman/pacman.png"
    viewBox="0 0 128 128"
    sodipodi:version="0.32"
    inkscape:export-xdpi="90"
    version="1.0"
    inkscape:output_extension="org.inkscape.output.svg.inkscape"
    inkscape:export-ydpi="90"
    inkscape:version="0.45+devel"
  >
  <defs
      id="defs4"
    >
    <linearGradient
        id="linearGradient2315"
      >
      <stop
          id="stop2317"
          style="stop-color:#000000;stop-opacity:0"
          offset="0"
      />
      <stop
          id="stop2319"
          style="stop-color:#000000;stop-opacity:.57196"
          offset="1"
      />
    </linearGradient
    >
    <filter
        id="filter3730"
        height="1.6817"
        width="1.696"
        y="-.34085"
        x="-.34802"
        inkscape:collect="always"
      >
      <feGaussianBlur
          id="feGaussianBlur3732"
          stdDeviation="5.4650567"
          inkscape:collect="always"
      />
    </filter
    >
    <filter
        id="filter4065"
        height="1.9068"
        width="2.0395"
        y="-.45339"
        x="-.51975"
        inkscape:collect="always"
      >
      <feGaussianBlur
          id="feGaussianBlur4067"
          stdDeviation="4.1511594"
          inkscape:collect="always"
      />
    </filter
    >
    <filter
        id="filter4112"
        height="1.6802"
        width="1.14"
        y="-.34010"
        x="-.070021"
        inkscape:collect="always"
      >
      <feGaussianBlur
          id="feGaussianBlur4114"
          stdDeviation="3.9678331"
          inkscape:collect="always"
      />
    </filter
    >
    <radialGradient
        id="radialGradient4616"
        gradientUnits="userSpaceOnUse"
        cy="506.35"
        cx="210.89"
        gradientTransform="matrix(1.4028 .0000016439 -1.4521e-7 .20588 -89.845 403.11)"
        r="68"
        inkscape:collect="always"
      >
      <stop
          id="stop4074"
          style="stop-color:#000000"
          offset="0"
      />
      <stop
          id="stop4076"
          style="stop-color:#000000;stop-opacity:0"
          offset="1"
      />
    </radialGradient
    >
    <radialGradient
        id="radialGradient4618"
        xlink:href="#linearGradient2315"
        gradientUnits="userSpaceOnUse"
        cy="458.27"
        cx="85.914"
        gradientTransform="matrix(.53827 1.5836 -2.1115 .71770 1003.6 -8.43)"
        r="23.445"
        inkscape:collect="always"
    />
    <radialGradient
        id="radialGradient4626"
        xlink:href="#linearGradient2315"
        gradientUnits="userSpaceOnUse"
        cy="409.86"
        cx="233.5"
        gradientTransform="matrix(.38710 1.5161 -1.4234 .36342 726.51 -93.107)"
        r="15.5"
        inkscape:collect="always"
    />
    <radialGradient
        id="radialGradient4639"
        xlink:href="#linearGradient2315"
        gradientUnits="userSpaceOnUse"
        cy="469.07"
        cx="236.47"
        gradientTransform="matrix(1.4254 -.11753 .038397 .46571 -28.241 25.037)"
        r="13.809"
        inkscape:collect="always"
    />
    <radialGradient
        id="radialGradient4662"
        xlink:href="#linearGradient2315"
        gradientUnits="userSpaceOnUse"
        cy="497.96"
        cx="216.99"
        gradientTransform="matrix(.51027 1.0072 -.96511 .48897 665.78 -290.53)"
        r="65"
        inkscape:collect="always"
    />
    <filter
        id="filter4705"
        inkscape:collect="always"
      >
      <feGaussianBlur
          id="feGaussianBlur4707"
          stdDeviation="0.31601563"
          inkscape:collect="always"
      />
    </filter
    >
  </defs
  >
  <sodipodi:namedview
      id="base"
      inkscape:zoom="0.721875"
      height="640px"
      borderopacity="1.0"
      inkscape:current-layer="layer1"
      inkscape:cx="256"
      inkscape:cy="-123.46856"
      showgrid="false"
      width="128px"
      inkscape:guide-bbox="true"
      showguides="true"
      bordercolor="#666666"
      inkscape:window-x="674"
      guidetolerance="10"
      objecttolerance="10"
      inkscape:window-y="205"
      inkscape:window-width="937"
      inkscape:pageopacity="0.0"
      inkscape:pageshadow="2"
      pagecolor="#ffffff"
      gridtolerance="10000"
      inkscape:document-units="px"
      inkscape:window-height="697"
    >
    <inkscape:grid
        id="grid3194"
        originy="0px"
        originx="0px"
        spacingy="0px"
        spacingx="0px"
        type="xygrid"
    />
  </sodipodi:namedview
  >
  <g
      id="layer1"
      inkscape:label="Layer 1"
      inkscape:groupmode="layer"
      transform="translate(-233.42 -11.735)"
    >
    <g
        id="g4713"
        transform="translate(-9.4823 -115.61)"
      >
      <path
          id="path3698"
          style="filter:url(#filter4112);fill:url(#radialGradient4616)"
          transform="matrix(.75480 0 0 .61103 156.83 -67.219)"
          d="m274 507.36c0 7.73-30.46 14-68 14s-68-6.27-68-14 30.46-14 68-14 68 6.27 68 14z"
      />
      <g
          id="g3779"
          transform="matrix(.39176 0 0 .39176 316.23 -14.988)"
        >
        <path
            id="path3781"
            sodipodi:rx="23.444727"
            sodipodi:ry="23.444727"
            style="fill:#80b0fa"
            sodipodi:type="arc"
            d="m118.7 470.05a23.445 23.445 0 1 1 -46.887 0 23.445 23.445 0 1 1 46.887 0z"
            transform="translate(-1.154e-8 -43.279)"
            sodipodi:cy="470.04587"
            sodipodi:cx="95.257401"
        />
        <path
            id="path3783"
            sodipodi:rx="23.444727"
            sodipodi:ry="23.444727"
            style="fill:url(#radialGradient4618)"
            sodipodi:type="arc"
            d="m118.7 470.05a23.445 23.445 0 1 1 -46.887 0 23.445 23.445 0 1 1 46.887 0z"
            transform="translate(-1.154e-8 -43.279)"
            sodipodi:cy="470.04587"
            sodipodi:cx="95.257401"
        />
      </g
      >
      <g
          id="g3763"
          transform="matrix(.51378 0 0 .51378 297.76 -60.219)"
        >
        <path
            id="path3765"
            sodipodi:rx="23.444727"
            sodipodi:ry="23.444727"
            style="fill:#80b0fa"
            sodipodi:type="arc"
            d="m118.7 470.05a23.445 23.445 0 1 1 -46.887 0 23.445 23.445 0 1 1 46.887 0z"
            transform="translate(-1.154e-8 -43.279)"
            sodipodi:cy="470.04587"
            sodipodi:cx="95.257401"
        />
        <path
            id="path3767"
            sodipodi:rx="23.444727"
            sodipodi:ry="23.444727"
            style="fill:url(#radialGradient4618)"
            sodipodi:type="arc"
            d="m118.7 470.05a23.445 23.445 0 1 1 -46.887 0 23.445 23.445 0 1 1 46.887 0z"
            transform="translate(-1.154e-8 -43.279)"
            sodipodi:cy="470.04587"
            sodipodi:cx="95.257401"
        />
      </g
      >
      <g
          id="g3747"
          transform="matrix(.71287 0 0 .71287 270.41 -135.39)"
        >
        <path
            id="path3749"
            sodipodi:rx="23.444727"
            sodipodi:ry="23.444727"
            style="fill:#80b0fa"
            sodipodi:type="arc"
            d="m118.7 470.05a23.445 23.445 0 1 1 -46.887 0 23.445 23.445 0 1 1 46.887 0z"
            transform="translate(-1.154e-8 -43.279)"
            sodipodi:cy="470.04587"
            sodipodi:cx="95.257401"
        />
        <path
            id="path3751"
            sodipodi:rx="23.444727"
            sodipodi:ry="23.444727"
            style="fill:url(#radialGradient4618)"
            sodipodi:type="arc"
            d="m118.7 470.05a23.445 23.445 0 1 1 -46.887 0 23.445 23.445 0 1 1 46.887 0z"
            transform="translate(-1.154e-8 -43.279)"
            sodipodi:cy="470.04587"
            sodipodi:cx="95.257401"
        />
      </g
      >
      <path
          id="path3700"
          sodipodi:nodetypes="cccsssccssc"
          style="fill:#80b0fa"
          d="m358.65 199.31c0 3.45-0.37 26.78-1.09 30.01-1.76 8.89-7.47 14-16.05 15.95-3.98 0.74-8.52-15.56-13.44-15.65-4.91-0.09-10.22 16.03-15.75 16.03-5.56 0-10.89-16.13-15.83-16.06-4.94 0.08-9.48 16.36-13.48 15.58-9.04-1.5-13.77-7.68-16-16.14-0.67-3.15-1.03-26.37-1.03-29.72 0-25.58 20.76-46.34 46.34-46.34s46.33 20.76 46.33 46.34z"
      />
      <path
          id="path4709"
          style="filter:url(#filter4705);fill-rule:evenodd;fill:#000000;fill-opacity:.53540"
          d="m318.83 171.35c-4.8 2.72-7.67 6.01-8.31 9.84l3.47 0.16c0.62-3.72 0.8-6.53 5.38-9.13l-0.54-0.87zm2.1 4.59c-2.47 1.32-5.19 3.88-5.5 5.94l3.12 0.84c0.26-1.7 0.76-4.79 2.85-5.9l-0.47-0.88zm1.78 4.78c-1.59 0.59-2.84 1.61-3.34 3.13l1.68 0.56c0.28-1.32 0.57-2.68 1.69-3.28l-0.03-0.41z"
      />
      <path
          id="path3702"
          sodipodi:nodetypes="cccsssccssc"
          style="fill:url(#radialGradient4662)"
          d="m358.65 199.31c0 3.45-0.37 26.78-1.09 30.01-1.76 8.89-7.47 14-16.05 15.95-3.98 0.74-8.52-15.56-13.44-15.65-4.91-0.09-10.22 16.03-15.75 16.03-5.56 0-10.89-16.13-15.83-16.06-4.94 0.08-9.48 16.36-13.48 15.58-9.04-1.5-13.77-7.68-16-16.14-0.67-3.15-1.03-26.37-1.03-29.72 0-25.58 20.76-46.34 46.34-46.34s46.33 20.76 46.33 46.34z"
      />
      <path
          id="path4691"
          style="filter:url(#filter4705);fill-rule:evenodd;fill:#000000;fill-opacity:.53540"
          d="m348.08 171.35c-4.8 2.72-7.67 6.01-8.31 9.84l3.47 0.16c0.62-3.72 0.8-6.53 5.38-9.13l-0.54-0.87zm2.1 4.59c-2.47 1.32-5.19 3.88-5.5 5.94l3.12 0.84c0.26-1.7 0.76-4.79 2.85-5.9l-0.47-0.88zm1.78 4.78c-1.59 0.59-2.84 1.61-3.34 3.13l1.68 0.56c0.28-1.32 0.57-2.68 1.69-3.28l-0.03-0.41z"
      />
      <path
          id="path4576"
          d="m113.25 158.91c-4.8 2.72-7.67 6.01-8.31 9.84l3.47 0.16c0.62-3.72 0.79-6.53 5.37-9.13l-0.53-0.87zm2.09 4.59c-2.46 1.31-5.19 3.88-5.5 5.94l3.13 0.84c0.25-1.7 0.76-4.79 2.84-5.9l-0.47-0.88zm1.78 4.78c-1.59 0.58-2.84 1.6-3.34 3.13l1.69 0.56c0.28-1.32 0.57-2.68 1.69-3.28l-0.04-0.41z"
          style="fill-rule:evenodd;fill:#000000"
          transform="translate(233.42 11.735)"
      />
      <g
          id="g3704"
          transform="matrix(.71287 0 0 .71287 166.89 -111.76)"
        >
        <path
            id="path3706"
            sodipodi:rx="15.5"
            sodipodi:ry="15.5"
            style="fill:#ffffff"
            sodipodi:type="arc"
            d="m255 417.86a15.5 15.5 0 1 1 -31 0 15.5 15.5 0 1 1 31 0z"
            transform="translate(4,7)"
            sodipodi:cy="417.86218"
            sodipodi:cx="239.5"
        />
        <path
            id="path3708"
            sodipodi:rx="15.5"
            sodipodi:ry="15.5"
            style="fill:url(#radialGradient4626)"
            sodipodi:type="arc"
            d="m255 417.86a15.5 15.5 0 1 1 -31 0 15.5 15.5 0 1 1 31 0z"
            transform="translate(4,7)"
            sodipodi:cy="417.86218"
            sodipodi:cx="239.5"
        />
        <path
            id="path3710"
            sodipodi:rx="15.5"
            sodipodi:ry="15.5"
            style="fill:#000000"
            sodipodi:type="arc"
            d="m255 417.86a15.5 15.5 0 1 1 -31 0 15.5 15.5 0 1 1 31 0z"
            transform="matrix(.61290 0 0 .61290 101.71 169.75)"
            sodipodi:cy="417.86218"
            sodipodi:cx="239.5"
        />
      </g
      >
      <path
          id="path4711"
          style="fill-rule:evenodd;fill:#000000"
          d="m317.42 170.64c-4.8 2.73-7.67 6.01-8.31 9.84l3.47 0.16c0.62-3.72 0.79-6.53 5.37-9.12l-0.53-0.88zm2.09 4.59c-2.46 1.32-5.19 3.88-5.5 5.94l3.13 0.85c0.25-1.7 0.76-4.8 2.84-5.91l-0.47-0.88zm1.79 4.79c-1.6 0.58-2.85 1.6-3.35 3.12l1.69 0.56c0.28-1.32 0.57-2.68 1.69-3.28l-0.03-0.4z"
      />
      <g
          id="g3712"
          transform="matrix(.71287 0 0 .71287 138.38 -111.76)"
        >
        <path
            id="path3714"
            sodipodi:rx="15.5"
            sodipodi:ry="15.5"
            style="fill:#ffffff"
            sodipodi:type="arc"
            d="m255 417.86a15.5 15.5 0 1 1 -31 0 15.5 15.5 0 1 1 31 0z"
            transform="translate(4,7)"
            sodipodi:cy="417.86218"
            sodipodi:cx="239.5"
        />
        <path
            id="path3716"
            sodipodi:rx="15.5"
            sodipodi:ry="15.5"
            style="fill:url(#radialGradient4626)"
            sodipodi:type="arc"
            d="m255 417.86a15.5 15.5 0 1 1 -31 0 15.5 15.5 0 1 1 31 0z"
            transform="translate(4,7)"
            sodipodi:cy="417.86218"
            sodipodi:cx="239.5"
        />
        <path
            id="path3718"
            sodipodi:rx="15.5"
            sodipodi:ry="15.5"
            style="fill:#000000"
            sodipodi:type="arc"
            d="m255 417.86a15.5 15.5 0 1 1 -31 0 15.5 15.5 0 1 1 31 0z"
            transform="matrix(.61290 0 0 .61290 101.71 169.75)"
            sodipodi:cy="417.86218"
            sodipodi:cx="239.5"
        />
      </g
      >
      <path
          id="path3720"
          style="filter:url(#filter3730);fill-opacity:.62745;fill:#ffffff"
          transform="matrix(.71287 0 0 .71287 163.33 -118.89)"
          d="m180.01 413.25c-10.03 10.27-20.41 16.42-23.17 13.72-2.77-2.7 3.13-13.23 13.15-23.5 10.03-10.27 20.41-16.41 23.17-13.71 2.77 2.7-3.13 13.22-13.15 23.49z"
      />
      <path
          id="path3722"
          style="filter:url(#filter4065);fill-opacity:.43439;fill:#ffffff"
          transform="matrix(.54980 .45375 -.45375 .54980 433.59 -157.72)"
          d="m262 501.86c0 7.45-2.46 13.5-5.5 13.5s-5.5-6.05-5.5-13.5 2.46-13.5 5.5-13.5 5.5 6.05 5.5 13.5z"
      />
      <g
          id="g3741"
          transform="matrix(.71287 0 0 .71287 211.81 -129.73)"
        >
        <path
            id="path3735"
            sodipodi:rx="23.444727"
            sodipodi:ry="23.444727"
            style="fill:#80b0fa"
            sodipodi:type="arc"
            d="m118.7 470.05a23.445 23.445 0 1 1 -46.887 0 23.445 23.445 0 1 1 46.887 0z"
            transform="translate(-1.154e-8 -43.279)"
            sodipodi:cy="470.04587"
            sodipodi:cx="95.257401"
        />
        <path
            id="path3737"
            sodipodi:rx="23.444727"
            sodipodi:ry="23.444727"
            style="fill:url(#radialGradient4618)"
            sodipodi:type="arc"
            d="m118.7 470.05a23.445 23.445 0 1 1 -46.887 0 23.445 23.445 0 1 1 46.887 0z"
            transform="translate(-1.154e-8 -43.279)"
            sodipodi:cy="470.04587"
            sodipodi:cx="95.257401"
        />
      </g
      >
      <g
          id="g3755"
          transform="matrix(.51378 0 0 .51378 219.18 -53.051)"
        >
        <path
            id="path3757"
            sodipodi:rx="23.444727"
            sodipodi:ry="23.444727"
            style="fill:#80b0fa"
            sodipodi:type="arc"
            d="m118.7 470.05a23.445 23.445 0 1 1 -46.887 0 23.445 23.445 0 1 1 46.887 0z"
            transform="translate(-1.154e-8 -43.279)"
            sodipodi:cy="470.04587"
            sodipodi:cx="95.257401"
        />
        <path
            id="path3759"
            sodipodi:rx="23.444727"
            sodipodi:ry="23.444727"
            style="fill:url(#radialGradient4618)"
            sodipodi:type="arc"
            d="m118.7 470.05a23.445 23.445 0 1 1 -46.887 0 23.445 23.445 0 1 1 46.887 0z"
            transform="translate(-1.154e-8 -43.279)"
            sodipodi:cy="470.04587"
            sodipodi:cx="95.257401"
        />
      </g
      >
      <g
          id="g3771"
          transform="matrix(.39176 0 0 .39176 222.03 -7.3035)"
        >
        <path
            id="path3773"
            sodipodi:rx="23.444727"
            sodipodi:ry="23.444727"
            style="fill:#80b0fa"
            sodipodi:type="arc"
            d="m118.7 470.05a23.445 23.445 0 1 1 -46.887 0 23.445 23.445 0 1 1 46.887 0z"
            transform="translate(-1.154e-8 -43.279)"
            sodipodi:cy="470.04587"
            sodipodi:cx="95.257401"
        />
        <path
            id="path3775"
            sodipodi:rx="23.444727"
            sodipodi:ry="23.444727"
            style="fill:url(#radialGradient4618)"
            sodipodi:type="arc"
            d="m118.7 470.05a23.445 23.445 0 1 1 -46.887 0 23.445 23.445 0 1 1 46.887 0z"
            transform="translate(-1.154e-8 -43.279)"
            sodipodi:cy="470.04587"
            sodipodi:cx="95.257401"
        />
      </g
      >
      <path
          id="path3789"
          sodipodi:nodetypes="cccc"
          style="fill-rule:evenodd;fill:#ff0000"
          d="m317.17 215.58c4.24-2.46 10.97-6 14.58-0.99 2.36-5.22 6.58-3.12 11.13-0.33-2.85 4.77-13.22 9.45-25.71 1.32z"
      />
      <path
          id="path3791"
          sodipodi:nodetypes="cccc"
          style="fill-rule:evenodd;fill:url(#radialGradient4639)"
          d="m317.17 215.58c4.24-2.46 10.97-6 14.58-0.99 2.36-5.22 6.58-3.12 11.13-0.33-2.85 4.77-13.22 9.45-25.71 1.32z"
      />
    </g
    >
  </g
  >
  <metadata
    >
    <rdf:RDF
      >
      <cc:Work
        >
        <dc:format
          >image/svg+xml</dc:format
        >
        <dc:type
            rdf:resource="http://purl.org/dc/dcmitype/StillImage"
        />
        <cc:license
            rdf:resource="http://creativecommons.org/licenses/publicdomain/"
        />
        <dc:publisher
          >
          <cc:Agent
              rdf:about="http://openclipart.org/"
            >
            <dc:title
              >Openclipart</dc:title
            >
          </cc:Agent
          >
        </dc:publisher
        >
        <dc:title
          >Game baddie: Girl</dc:title
        >
        <dc:date
          >2008-02-04T15:06:34</dc:date
        >
        <dc:description
          >Bad guy for arcade games, inspired from the classic Pac-Man: a girl</dc:description
        >
        <dc:source
          >https://openclipart.org/detail/12564/game-baddie:-girl-by-nicubunu</dc:source
        >
        <dc:creator
          >
          <cc:Agent
            >
            <dc:title
              >nicubunu</dc:title
            >
          </cc:Agent
          >
        </dc:creator
        >
        <dc:subject
          >
          <rdf:Bag
            >
            <rdf:li
              >arcade</rdf:li
            >
            <rdf:li
              >baddie</rdf:li
            >
            <rdf:li
              >funny</rdf:li
            >
            <rdf:li
              >game</rdf:li
            >
          </rdf:Bag
          >
        </dc:subject
        >
      </cc:Work
      >
      <cc:License
          rdf:about="http://creativecommons.org/licenses/publicdomain/"
        >
        <cc:permits
            rdf:resource="http://creativecommons.org/ns#Reproduction"
        />
        <cc:permits
            rdf:resource="http://creativecommons.org/ns#Distribution"
        />
        <cc:permits
            rdf:resource="http://creativecommons.org/ns#DerivativeWorks"
        />
      </cc:License
      >
    </rdf:RDF
    >
  </metadata
  >
</svg
>
